<svg xmlns="http://www.w3.org/2000/svg" width="258" height="39" viewBox="0 0 258 39">
  <g fill="none">
    <g opacity="0">
      <rect width="258.667" height="40" fill="#D8D8D8"/>
      <rect width="257.333" height="38.667" x=".667" y=".667" stroke="#979797"/>
    </g>
    <path fill="#009CE3" d="M48 7.08702792L56.6844536 7.08702792C64.1934357 7.08702792 68.6321565 11.7635468 68.6321565 19.7153804 68.6321565 27.6847291 64.2109801 32.361248 56.6844536 32.361248L48 32.361248 48 7.08702792zM51.1579832 9.92446633L51.1579832 29.5238095 56.4739215 29.5238095C62.2109241 29.5238095 65.403996 26.0207991 65.403996 19.7504105 65.403996 13.4274768 62.2284685 9.92446633 56.4739215 9.92446633L51.1579832 9.92446633zM80.4212585 15.9846743C77.4562632 15.9846743 75.3158524 18.1390257 75.1053203 21.3267652L85.5091203 21.3267652C85.4389428 18.1215107 83.4037981 15.9846743 80.4212585 15.9846743zM85.4389428 26.9666119L88.4565712 26.9666119C87.9302407 30.2068965 84.6494471 32.5363985 80.6142464 32.5363985 75.2983081 32.5363985 71.9473371 28.8407225 71.9473371 22.9906951 71.9473371 17.1406677 75.3158524 13.3048714 80.4738916 13.3048714 85.5266647 13.3048714 88.6846477 16.8604269 88.6846477 22.5703339L88.6846477 23.7613575 75.1053203 23.7613575 75.1053203 23.936508C75.1053203 27.5270936 77.3159084 29.8565955 80.6844237 29.8565955 83.0529112 29.8565955 84.895068 28.7356321 85.4389428 26.9666119zM108.035365 13.4800219L101.052713 32.361248 97.9649076 32.361248 90.982256 13.4800219 94.1753277 13.4800219 99.4737217 29.0684181 99.5438992 29.0684181 104.859837 13.4800219 108.035365 13.4800219zM122.333309 6.66666667C129.508949 6.66666667 134.000303 11.7110016 134.000303 19.7328955 134.000303 27.7547893 129.508949 32.7816092 122.333309 32.7816092 115.15767 32.7816092 110.666316 27.7547893 110.666316 19.7328955 110.666316 11.7110016 115.15767 6.66666667 122.333309 6.66666667zM122.333309 9.57416529C117.157726 9.57416529 113.912021 13.4975369 113.912021 19.7328955 113.912021 25.9507389 117.157726 29.8741105 122.333309 29.8741105 127.508893 29.8741105 130.754597 25.9507389 130.754597 19.7328955 130.754597 13.4975369 127.508893 9.57416529 122.333309 9.57416529zM147.350852 13.3048714C152.175548 13.3048714 155.456341 17.1581828 155.456341 22.9206349 155.456341 28.6830871 152.193092 32.5363985 147.421029 32.5363985 144.736743 32.5363985 142.578788 31.36289 141.385772 29.2961139L141.315595 29.2961139 141.315595 38.6666667 138.262877 38.6666667 138.262877 13.4800219 141.157696 13.4800219 141.157696 16.545156 141.227873 16.545156C142.333167 14.5834701 144.736743 13.3048714 147.350852 13.3048714zM146.789432 29.8215655C150.122859 29.8215655 152.333447 27.1067324 152.333447 22.9206349 152.333447 18.7520525 150.122859 16.0197044 146.789432 16.0197044 143.526183 16.0197044 141.298051 18.8221128 141.298051 22.9206349 141.298051 27.0366721 143.526183 29.8215655 146.789432 29.8215655zM159.069776 18.7520525C159.069776 15.5643131 161.964595 13.3223864 166.069972 13.3223864 169.912185 13.3223864 172.824547 15.6168583 172.947357 18.7170224L170.017451 18.7170224C169.824463 16.9480021 168.28056 15.8445539 165.964705 15.8445539 163.631308 15.8445539 162.06986 16.9480021 162.06986 18.5944171 162.06986 19.8730159 163.087432 20.7312535 165.262932 21.27422L168.140205 21.9923372C171.964873 22.9556651 173.333333 24.2868089 173.333333 27.0366721 173.333333 30.2594417 170.227983 32.5363985 165.85944 32.5363985 161.789151 32.5363985 158.8417 30.3295019 158.543445 27.0541872L161.613707 27.0541872C161.929505 28.9808429 163.490952 30.0142309 166.069972 30.0142309 168.648992 30.0142309 170.263072 28.9458128 170.263072 27.2468528 170.263072 25.9157088 169.473576 25.2151067 167.315621 24.6546251L163.999739 23.7963875C160.683856 22.93815 159.069776 21.27422 159.069776 18.7520525zM37.3333333 18.7168333L37.3335919 37.3333333 29.1351667 37.3333333 29.1351667 28.9356667 29.1351667 22.7605 29.1351667 18.5826667C29.1678333 12.8636667 24.5455 8.204 18.8148333 8.1725 14.1703333 8.14683333 10.2235 11.1685 8.8725 15.3568333L5.78433333 16.8758333 8.38016667 19.026C8.659 24.1325 10.4673333 32.6853333 25.438 37.3333333L18.5663333 37.3333333C8.25533333 37.2773333-.0571666667 28.7956667 2.96052245e-15 18.515.0571666667 8.23433333 8.45833333-.056 18.7693333 5.03302912e-15 29.0768333.0548333333 37.387 8.435 37.3333333 18.7168333zM16.4626 19.45055C16.4591 20.64055 15.4861 21.6007167 14.2926 21.59255 13.1014333 21.5867167 12.1377667 20.61605 12.1471 19.42605 12.1517667 18.2372167 13.1247667 17.2782167 14.3171 17.2852167 15.5106 17.2898833 16.4719333 18.2593833 16.4626 19.45055z"/>
    <path fill="#666" d="M188.218667,22.136 L188.218667,24.992 L192.512,24.992 L192.512,22.136 L188.218667,22.136 Z M188.125333,26.6346667 C187.901333,28.9866667 187.210667,30.928 186.053333,32.4586667 L184.690667,31.2453333 C185.810667,29.64 186.389333,27.6053333 186.426667,25.1413333 L186.426667,15.9946667 L200.744,15.9946667 L200.744,30.0506667 C200.744,31.4506667 200.016,32.16 198.597333,32.16 L196.450667,32.16 L195.984,30.424 C196.712,30.48 197.384,30.5173333 198.018667,30.5173333 C198.616,30.5173333 198.933333,30.144 198.933333,29.416 L198.933333,26.6346667 L194.304,26.6346667 L194.304,31.9546667 L192.512,31.9546667 L192.512,26.6346667 L188.125333,26.6346667 Z M198.933333,24.992 L198.933333,22.136 L194.304,22.136 L194.304,24.992 L198.933333,24.992 Z M198.933333,20.512 L198.933333,17.712 L194.304,17.712 L194.304,20.512 L198.933333,20.512 Z M192.512,17.712 L188.218667,17.712 L188.218667,20.512 L192.512,20.512 L192.512,17.712 Z M217.301333,19.2426667 L207.128,19.2426667 L207.128,22.416 L217.301333,22.416 L217.301333,19.2426667 Z M207.109333,24.152 C206.997333,27.4373333 206.138667,30.2933333 204.514667,32.6826667 L203.208,31.488 C204.626667,29.4533333 205.354667,26.8213333 205.373333,23.6106667 L205.373333,17.5066667 L211.365333,17.5066667 C211.066667,16.7973333 210.730667,16.1253333 210.357333,15.5093333 L212.261333,15.2106667 C212.578667,15.9013333 212.877333,16.6666667 213.176,17.5066667 L219.093333,17.5066667 L219.093333,24.152 L207.109333,24.152 Z M222.434667,18.3653333 L229.957333,18.3653333 C229.472,17.4693333 228.874667,16.6293333 228.165333,15.8266667 L229.938667,15.1733333 C230.610667,16.0693333 231.245333,17.1333333 231.824,18.3653333 L238.898667,18.3653333 L238.898667,20.12 L236.042667,20.12 C235.146667,22.9573333 233.821333,25.328 232.066667,27.2506667 C234.008,28.8373333 236.434667,30.1626667 239.309333,31.208 L238.32,32.7013333 C235.314667,31.5813333 232.813333,30.1813333 230.834667,28.5013333 C228.725333,30.368 226.130667,31.7493333 223.050667,32.6453333 L222.098667,31.0773333 C225.122667,30.2933333 227.605333,29.0613333 229.584,27.3626667 C227.530667,25.3093333 226.093333,22.8826667 225.290667,20.12 L222.434667,20.12 L222.434667,18.3653333 Z M226.989333,20.12 C227.773333,22.416 229.042667,24.432 230.816,26.1493333 C232.328,24.488 233.466667,22.472 234.213333,20.12 L226.989333,20.12 Z M247.709333,21.688 L251.666667,21.688 L251.666667,15.3786667 L253.477333,15.3786667 L253.477333,21.688 L257.285333,21.688 L257.285333,32.5893333 L255.530667,32.5893333 L255.530667,31.9173333 L247.429333,31.9173333 L247.429333,30.1813333 L255.530667,30.1813333 L255.530667,27.624 L248.176,27.624 L248.176,25.944 L255.530667,25.944 L255.530667,23.4053333 L247.709333,23.4053333 L247.709333,21.688 Z M256.202667,16.2933333 L257.770667,17.04 C257.266667,18.384 256.613333,19.7093333 255.829333,20.9786667 L254.317333,20.1946667 C255.101333,18.888 255.736,17.5813333 256.202667,16.2933333 Z M248.866667,16.424 C249.52,17.5626667 250.136,18.8133333 250.733333,20.1946667 L249.202667,20.96 C248.605333,19.5413333 247.970667,18.2906667 247.298667,17.1893333 L248.866667,16.424 Z M245.170667,23.4613333 L245.170667,32.5146667 L243.397333,32.5146667 L243.397333,23.8533333 C242.837333,25.4213333 242.146667,26.8773333 241.325333,28.184 L240.56,26.2613333 C241.848,24.5813333 242.781333,22.696 243.36,20.568 L241.008,20.568 L241.008,18.8693333 L243.397333,18.8693333 L243.397333,15.3786667 L245.170667,15.3786667 L245.170667,18.8693333 L247.242667,18.8693333 L247.242667,20.568 L245.170667,20.568 L245.170667,21.4266667 C246.010667,22.3226667 246.850667,23.312 247.690667,24.3573333 L246.664,25.8506667 C246.104,24.9173333 245.6,24.1146667 245.170667,23.4613333 Z"/>
  </g>
</svg>
