<?xml version="1.0" encoding="UTF-8"?>
<svg width="194px" height="30px" viewBox="0 0 194 30" version="1.1" xmlns="http://www.w3.org/2000/svg" xmlns:xlink="http://www.w3.org/1999/xlink">
    <!-- Generator: Sketch 49 (51002) - http://www.bohemiancoding.com/sketch -->
    <title>Artboard</title>
    <desc>Created with Sketch.</desc>
    <defs>
        <rect id="path-1" x="0" y="0" width="194" height="30"></rect>
    </defs>
    <g id="Artboard" stroke="none" stroke-width="1" fill="none" fill-rule="evenodd">
        <g id="Rectangle-7" opacity="0">
            <use fill="#D8D8D8" fill-rule="evenodd" xlink:href="#path-1"></use>
            <rect stroke="#979797" stroke-width="1" x="0.5" y="0.5" width="193" height="29"></rect>
        </g>
        <path d="M36,5.31527094 L42.5133402,5.31527094 C48.1450768,5.31527094 51.4741174,8.8226601 51.4741174,14.7865353 C51.4741174,20.7635468 48.1582351,24.270936 42.5133402,24.270936 L36,24.270936 L36,5.31527094 Z M38.3684874,7.44334975 L38.3684874,22.1428571 L42.3554411,22.1428571 C46.6581931,22.1428571 49.052997,19.5155993 49.052997,14.8128079 C49.052997,10.0706076 46.6713514,7.44334975 42.3554411,7.44334975 L38.3684874,7.44334975 Z M60.3159439,11.9885057 C58.0921974,11.9885057 56.4868893,13.6042693 56.3289902,15.9950739 L64.1318402,15.9950739 C64.0792071,13.591133 62.5528486,11.9885057 60.3159439,11.9885057 Z M64.0792071,20.2249589 L66.3424284,20.2249589 C65.9476805,22.6551724 63.4870853,24.4022989 60.4606848,24.4022989 C56.4737311,24.4022989 53.9605028,21.6305419 53.9605028,17.2430213 C53.9605028,12.8555008 56.4868893,9.97865353 60.3554187,9.97865353 C64.1449985,9.97865353 66.5134858,12.6453202 66.5134858,16.9277504 L66.5134858,17.8210181 L56.3289902,17.8210181 L56.3289902,17.952381 C56.3289902,20.6453202 57.9869313,22.3924466 60.5133178,22.3924466 C62.2896834,22.3924466 63.671301,21.5517241 64.0792071,20.2249589 Z M81.0265237,10.1100164 L75.789535,24.270936 L73.4736807,24.270936 L68.236692,10.1100164 L70.6314958,10.1100164 L74.6052913,21.8013136 L74.6579244,21.8013136 L78.6448781,10.1100164 L81.0265237,10.1100164 Z M91.7499818,5 C97.1317114,5 100.500227,8.78325123 100.500227,14.7996716 C100.500227,20.816092 97.1317114,24.5862069 91.7499818,24.5862069 C86.3682522,24.5862069 82.9997368,20.816092 82.9997368,14.7996716 C82.9997368,8.78325123 86.3682522,5 91.7499818,5 Z M91.7499818,7.18062397 C87.8682942,7.18062397 85.4340155,10.1231527 85.4340155,14.7996716 C85.4340155,19.4630542 87.8682942,22.4055829 91.7499818,22.4055829 C95.6316694,22.4055829 98.0659481,19.4630542 98.0659481,14.7996716 C98.0659481,10.1231527 95.6316694,7.18062397 91.7499818,7.18062397 Z M110.513139,9.97865353 C114.131661,9.97865353 116.592256,12.8686371 116.592256,17.1904762 C116.592256,21.5123153 114.144819,24.4022989 110.565772,24.4022989 C108.552557,24.4022989 106.934091,23.5221675 106.039329,21.9720854 L105.986696,21.9720854 L105.986696,29 L103.697158,29 L103.697158,10.1100164 L105.868272,10.1100164 L105.868272,12.408867 L105.920905,12.408867 C106.749875,10.9376026 108.552557,9.97865353 110.513139,9.97865353 Z M110.092074,22.3661741 C112.592144,22.3661741 114.250085,20.3300493 114.250085,17.1904762 C114.250085,14.0640394 112.592144,12.0147783 110.092074,12.0147783 C107.644637,12.0147783 105.973538,14.1165846 105.973538,17.1904762 C105.973538,20.2775041 107.644637,22.3661741 110.092074,22.3661741 Z M119.302332,14.0640394 C119.302332,11.6732348 121.473446,9.99178982 124.552479,9.99178982 C127.434139,9.99178982 129.61841,11.7126437 129.710518,14.0377668 L127.513088,14.0377668 C127.368347,12.7110016 126.21042,11.8834154 124.473529,11.8834154 C122.723481,11.8834154 121.552395,12.7110016 121.552395,13.9458128 C121.552395,14.9047619 122.315574,15.5484401 123.947199,15.955665 L126.105154,16.4942529 C128.973655,17.2167488 130,18.2151067 130,20.2775041 C130,22.6945813 127.670987,24.4022989 124.39458,24.4022989 C121.341863,24.4022989 119.131275,22.7471264 118.907584,20.2906404 L121.21028,20.2906404 C121.447129,21.7356322 122.618214,22.5106732 124.552479,22.5106732 C126.486744,22.5106732 127.697304,21.7093596 127.697304,20.4351396 C127.697304,19.4367816 127.105182,18.91133 125.486716,18.4909688 L122.999804,17.8472906 C120.512892,17.2036125 119.302332,15.955665 119.302332,14.0640394 Z" id="DevOps" fill="#FFFFFF"></path>
        <path d="M28,14.037625 L28.0001939,28 L21.851375,28 L21.851375,21.70175 L21.851375,17.070375 L21.851375,13.937 C21.875875,9.64775 18.409125,6.153 14.111125,6.129375 C10.62775,6.110125 7.667625,8.376375 6.654375,11.517625 L4.33825,12.656875 L6.285125,14.2695 C6.49425,18.099375 7.8505,24.514 19.0785,28 L13.92475,28 C6.1915,27.958 -0.042875,21.59675 4.44007895e-16,13.88625 C0.042875,6.17575 6.34375,-0.042 14.077,3.77475828e-15 C21.807625,0.041125 28.04025,6.32625 28,14.037625" id="Fill-2" fill="#FFFFFF"></path>
        <path d="M12.34695,14.5879125 C12.344325,15.4804125 11.614575,16.2005375 10.71945,16.1944125 C9.826075,16.1900375 9.103325,15.4620375 9.110325,14.5695375 C9.113825,13.6779125 9.843575,12.9586625 10.737825,12.9639125 C11.63295,12.9674125 12.35395,13.6945375 12.34695,14.5879125" id="Fill-5" fill="#FFFFFF"></path>
        <path d="M141.164,16.602 L141.164,18.744 L144.384,18.744 L144.384,16.602 L141.164,16.602 Z M141.094,19.976 C140.926,21.74 140.408,23.196 139.54,24.344 L138.518,23.434 C139.358,22.23 139.792,20.704 139.82,18.856 L139.82,11.996 L150.558,11.996 L150.558,22.538 C150.558,23.588 150.012,24.12 148.948,24.12 L147.338,24.12 L146.988,22.818 C147.534,22.86 148.038,22.888 148.514,22.888 C148.962,22.888 149.2,22.608 149.2,22.062 L149.2,19.976 L145.728,19.976 L145.728,23.966 L144.384,23.966 L144.384,19.976 L141.094,19.976 Z M149.2,18.744 L149.2,16.602 L145.728,16.602 L145.728,18.744 L149.2,18.744 Z M149.2,15.384 L149.2,13.284 L145.728,13.284 L145.728,15.384 L149.2,15.384 Z M144.384,13.284 L141.164,13.284 L141.164,15.384 L144.384,15.384 L144.384,13.284 Z M162.976,14.432 L155.346,14.432 L155.346,16.812 L162.976,16.812 L162.976,14.432 Z M155.332,18.114 C155.248,20.578 154.604,22.72 153.386,24.512 L152.406,23.616 C153.47,22.09 154.016,20.116 154.03,17.708 L154.03,13.13 L158.524,13.13 C158.3,12.598 158.048,12.094 157.768,11.632 L159.196,11.408 C159.434,11.926 159.658,12.5 159.882,13.13 L164.32,13.13 L164.32,18.114 L155.332,18.114 Z M166.826,13.774 L172.468,13.774 C172.104,13.102 171.656,12.472 171.124,11.87 L172.454,11.38 C172.958,12.052 173.434,12.85 173.868,13.774 L179.174,13.774 L179.174,15.09 L177.032,15.09 C176.36,17.218 175.366,18.996 174.05,20.438 C175.506,21.628 177.326,22.622 179.482,23.406 L178.74,24.526 C176.486,23.686 174.61,22.636 173.126,21.376 C171.544,22.776 169.598,23.812 167.288,24.484 L166.574,23.308 C168.842,22.72 170.704,21.796 172.188,20.522 C170.648,18.982 169.57,17.162 168.968,15.09 L166.826,15.09 L166.826,13.774 Z M170.242,15.09 C170.83,16.812 171.782,18.324 173.112,19.612 C174.246,18.366 175.1,16.854 175.66,15.09 L170.242,15.09 Z M185.782,16.266 L188.75,16.266 L188.75,11.534 L190.108,11.534 L190.108,16.266 L192.964,16.266 L192.964,24.442 L191.648,24.442 L191.648,23.938 L185.572,23.938 L185.572,22.636 L191.648,22.636 L191.648,20.718 L186.132,20.718 L186.132,19.458 L191.648,19.458 L191.648,17.554 L185.782,17.554 L185.782,16.266 Z M192.152,12.22 L193.328,12.78 C192.95,13.788 192.46,14.782 191.872,15.734 L190.738,15.146 C191.326,14.166 191.802,13.186 192.152,12.22 Z M186.65,12.318 C187.14,13.172 187.602,14.11 188.05,15.146 L186.902,15.72 C186.454,14.656 185.978,13.718 185.474,12.892 L186.65,12.318 Z M183.878,17.596 L183.878,24.386 L182.548,24.386 L182.548,17.89 C182.128,19.066 181.61,20.158 180.994,21.138 L180.42,19.696 C181.386,18.436 182.086,17.022 182.52,15.426 L180.756,15.426 L180.756,14.152 L182.548,14.152 L182.548,11.534 L183.878,11.534 L183.878,14.152 L185.432,14.152 L185.432,15.426 L183.878,15.426 L183.878,16.07 C184.508,16.742 185.138,17.484 185.768,18.268 L184.998,19.388 C184.578,18.688 184.2,18.086 183.878,17.596 Z" id="用户文档" fill="#FFFFFF"></path>
    </g>
</svg>